Respondent Name, Test Commissioned By, Test Conducted On, Test Completed On
Deepak Bhatia,Abhay Phadnis,Tue 12 Jan 2021 13:48:54,Wed 13 Jan 2021 10:49:25


Rank,SC,SI,OP
RATIONAL,1,1,1
SACRIFICING,12,11,15
GRACIOUS,4,4,13
CAUTIOUS,6,10,2
EMOTIONAL,8,9,14
COMPETITIVE,7,2,5
SYMPATHETIC,9,13,6
UNINHIBITED,15,12,10
COLLABORATIVE,2,14,7
DUTIFUL,10,6,8
FAIR,11,8,3
TACTFUL,5,5,9
TOUGH,14,7,11
DYNAMIC,3,3,12
STEADY,13,15,4

Score Level,UBP,USD,URB,UPA,UMI,UDS
SC,19,15,20,47,30,19
SI,18,25,30,40,14,23
OTHERS,27,23,36,31,10,23

Impetus For Change
SC-SI,46
SC-OP,72
SI-OP,80
