{
  "surveyId": 101,
  "surveyTitle": "Leadership Assessment",
  "projectId": 1,
  "welcomeNote": "Thank you for participating in assessment.",
  "instructions": [
    "The survey takes about 10 - 15 minutes. You must complete the entire survey at one sitting for your answers to be counted. At the end of the survey, you will see a message that your responses have been successfully entered.",
    "You will be asked to select 10 words from a list of values/ behaviours.",
    "Press the 'Continue' button to move to the next page."
  ],
  "questions": [
    {
      "id": 1,
      "questionText": "Personal Values",
      "questionType": "cva",
      "surveyTitle": "Cultural Values Assessment",
      "questionInstruction": "Please select ten of the following values/ behaviours that most reflect who you are, not who you desire to become.",
      "optionsInstruction": "Click on a word to add or remove your selection.",
      "options": [
        {"label": "Accountability", "value": "Accountability"},
        {"label": "Achievement", "value": "Achievement"},
        {"label": "Adaptability", "value": "Adaptability"},
        {"label": "Ambition", "value": "Ambition"},
        {"label": "Balance (Work/life)", "value": "Balance (Work/life)"},
        {"label": "Being Liked", "value": "Being Liked"},
        {"label": "Being the best", "value": "Being the best"},
        {"label": "Caring", "value": "Caring"},
        {"label": "Caution", "value": "Caution"},
        {"label": "Clarity", "value": "Clarity"},
        {"label": "Coaching/Mentoring", "value": "Coaching/Mentoring"},
        {"label": "Commitment", "value": "Commitment"},
        {"label": "Community Involvement", "value": "Community Involvement"},
        {"label": "Compassion", "value": "Compassion"},
        {"label": "Competence", "value": "Competence"},
        {"label": "Conflict Resolution", "value": "Conflict Resolution"},
        {"label": "Continuous Learning", "value": "Continuous Learning"},
        {"label": "Control", "value": "Control"},
        {"label": "Courage", "value": "Courage"},
        {"label": "Creativity", "value": "Creativity"},
        {"label": "Dialogue", "value": "Dialogue"},
        {"label": "Ease with Uncertainty", "value": "Ease with Uncertainty"},
        {"label": "Efficiency", "value": "Efficiency"},
        {"label": "Enthusiasm/Positive Attitude", "value": "Enthusiasm/Positive Attitude"},
        {"label": "Entrepreneurial", "value": "Entrepreneurial"},
        {"label": "Environmental Awareness", "value": "Environmental Awareness"},
        {"label": "Ethics", "value": "Ethics"},
        {"label": "Excellence", "value": "Excellence"},
        {"label": "Fairness", "value": "Fairness"},
        {"label": "Family", "value": "Family"},
        {"label": "Financial stability", "value": "Financial stability"},
        {"label": "Forgiveness", "value": "Forgiveness"},
        {"label": "Friendship", "value": "Friendship"},
        {"label": "Future generations", "value": "Future generations"},
        {"label": "Generosity", "value": "Generosity"},
        {"label": "Health", "value": "Health"},
        {"label": "Humility", "value": "Humility"},
        {"label": "Humor/fun", "value": "Humor/fun"},
        {"label": "Independence", "value": "Independence"},
        {"label": "Initiative", "value": "Initiative"},
        {"label": "Integrity", "value": "Integrity"},
        {"label": "Job Security", "value": "Job Security"},
        {"label": "Leadership", "value": "Leadership"},
        {"label": "Listening", "value": "Listening"},
        {"label": "Making a difference", "value": "Making a difference"},
        {"label": "Openness", "value": "Openness"},
        {"label": "Patience", "value": "Patience"},
        {"label": "Perseverance", "value": "Perseverance"},
        {"label": "Personal Fulfilment", "value": "Personal Fulfilment"},
        {"label": "Personal Growth", "value": "Personal Growth"},
        {"label": "Personal Image", "value": "Personal Image"},
        {"label": "Power", "value": "Power"},
        {"label": "Professional Growth", "value": "Professional Growth"},
        {"label": "Recognition", "value": "Recognition"},
        {"label": "Reliability", "value": "Reliability"},
        {"label": "Respect", "value": "Respect"},
        {"label": "Reward", "value": "Reward"},
        {"label": "Risk Taking", "value": "Risk Taking"},
        {"label": "Safety", "value": "Safety"},
        {"label": "Self Discipline", "value": "Self Discipline"},
        {"label": "Teamwork", "value": "Teamwork"},
        {"label": "Trust", "value": "Trust"},
        {"label": "Vision", "value": "Vision"},
        {"label": "Wealth", "value": "Wealth"},
        {"label": "Well-being", "value": "Well-being"},
        {"label": "Wisdom", "value": "Wisdom"}
      ]
    },
    {
      "id": 2,
      "questionText": "Current Culture Values",
      "questionType": "cva",
      "surveyTitle": "Cultural Values Assessment",
      "questionInstruction": "Please select ten of the following values/ behaviours that most reflect who you are, not who you desire to become.",
      "optionsInstruction": "Click on a word to add or remove your selection.",
      "options": [
        {"label": "Accountability", "value": "Accountability"},
        {"label": "Achievement", "value": "Achievement"},
        {"label": "Adaptability", "value": "Adaptability"},
        {"label": "Ambition", "value": "Ambition"},
        {"label": "Balance (Work/life)", "value": "Balance (Work/life)"},
        {"label": "Being Liked", "value": "Being Liked"},
        {"label": "Being the best", "value": "Being the best"},
        {"label": "Caring", "value": "Caring"},
        {"label": "Caution", "value": "Caution"},
        {"label": "Clarity", "value": "Clarity"},
        {"label": "Coaching/Mentoring", "value": "Coaching/Mentoring"},
        {"label": "Commitment", "value": "Commitment"},
        {"label": "Community Involvement", "value": "Community Involvement"},
        {"label": "Compassion", "value": "Compassion"},
        {"label": "Competence", "value": "Competence"},
        {"label": "Conflict Resolution", "value": "Conflict Resolution"},
        {"label": "Continuous Learning", "value": "Continuous Learning"},
        {"label": "Control", "value": "Control"},
        {"label": "Courage", "value": "Courage"},
        {"label": "Creativity", "value": "Creativity"},
        {"label": "Dialogue", "value": "Dialogue"},
        {"label": "Ease with Uncertainty", "value": "Ease with Uncertainty"},
        {"label": "Efficiency", "value": "Efficiency"},
        {"label": "Enthusiasm/Positive Attitude", "value": "Enthusiasm/Positive Attitude"},
        {"label": "Entrepreneurial", "value": "Entrepreneurial"},
        {"label": "Environmental Awareness", "value": "Environmental Awareness"},
        {"label": "Ethics", "value": "Ethics"},
        {"label": "Excellence", "value": "Excellence"},
        {"label": "Fairness", "value": "Fairness"},
        {"label": "Family", "value": "Family"},
        {"label": "Financial stability", "value": "Financial stability"},
        {"label": "Forgiveness", "value": "Forgiveness"},
        {"label": "Friendship", "value": "Friendship"},
        {"label": "Future generations", "value": "Future generations"},
        {"label": "Generosity", "value": "Generosity"},
        {"label": "Health", "value": "Health"},
        {"label": "Humility", "value": "Humility"},
        {"label": "Humor/fun", "value": "Humor/fun"},
        {"label": "Independence", "value": "Independence"},
        {"label": "Initiative", "value": "Initiative"},
        {"label": "Integrity", "value": "Integrity"},
        {"label": "Job Security", "value": "Job Security"},
        {"label": "Leadership", "value": "Leadership"},
        {"label": "Listening", "value": "Listening"},
        {"label": "Making a difference", "value": "Making a difference"},
        {"label": "Openness", "value": "Openness"},
        {"label": "Patience", "value": "Patience"},
        {"label": "Perseverance", "value": "Perseverance"},
        {"label": "Personal Fulfilment", "value": "Personal Fulfilment"},
        {"label": "Personal Growth", "value": "Personal Growth"},
        {"label": "Personal Image", "value": "Personal Image"},
        {"label": "Power", "value": "Power"},
        {"label": "Professional Growth", "value": "Professional Growth"},
        {"label": "Recognition", "value": "Recognition"},
        {"label": "Reliability", "value": "Reliability"},
        {"label": "Respect", "value": "Respect"},
        {"label": "Reward", "value": "Reward"},
        {"label": "Risk Taking", "value": "Risk Taking"},
        {"label": "Safety", "value": "Safety"},
        {"label": "Self Discipline", "value": "Self Discipline"},
        {"label": "Teamwork", "value": "Teamwork"},
        {"label": "Trust", "value": "Trust"},
        {"label": "Vision", "value": "Vision"},
        {"label": "Wealth", "value": "Wealth"},
        {"label": "Well-being", "value": "Well-being"},
        {"label": "Wisdom", "value": "Wisdom"}
      ]
    },
    {
      "id": 3,
      "questionText": "Desired Culture Values",
      "questionType": "cva",
      "surveyTitle": "Cultural Values Assessment",
      "questionInstruction": "Please select ten of the following values/ behaviours that most reflect who you are, not who you desire to become.",
      "optionsInstruction": "Click on a word to add or remove your selection.",
      "options": [
        {"label": "Accountability", "value": "Accountability"},
        {"label": "Achievement", "value": "Achievement"},
        {"label": "Adaptability", "value": "Adaptability"},
        {"label": "Ambition", "value": "Ambition"},
        {"label": "Balance (Work/life)", "value": "Balance (Work/life)"},
        {"label": "Being Liked", "value": "Being Liked"},
        {"label": "Being the best", "value": "Being the best"},
        {"label": "Caring", "value": "Caring"},
        {"label": "Caution", "value": "Caution"},
        {"label": "Clarity", "value": "Clarity"},
        {"label": "Coaching/Mentoring", "value": "Coaching/Mentoring"},
        {"label": "Commitment", "value": "Commitment"},
        {"label": "Community Involvement", "value": "Community Involvement"},
        {"label": "Compassion", "value": "Compassion"},
        {"label": "Competence", "value": "Competence"},
        {"label": "Conflict Resolution", "value": "Conflict Resolution"},
        {"label": "Continuous Learning", "value": "Continuous Learning"},
        {"label": "Control", "value": "Control"},
        {"label": "Courage", "value": "Courage"},
        {"label": "Creativity", "value": "Creativity"},
        {"label": "Dialogue", "value": "Dialogue"},
        {"label": "Ease with Uncertainty", "value": "Ease with Uncertainty"},
        {"label": "Efficiency", "value": "Efficiency"},
        {"label": "Enthusiasm/Positive Attitude", "value": "Enthusiasm/Positive Attitude"},
        {"label": "Entrepreneurial", "value": "Entrepreneurial"},
        {"label": "Environmental Awareness", "value": "Environmental Awareness"},
        {"label": "Ethics", "value": "Ethics"},
        {"label": "Excellence", "value": "Excellence"},
        {"label": "Fairness", "value": "Fairness"},
        {"label": "Family", "value": "Family"},
        {"label": "Financial stability", "value": "Financial stability"},
        {"label": "Forgiveness", "value": "Forgiveness"},
        {"label": "Friendship", "value": "Friendship"},
        {"label": "Future generations", "value": "Future generations"},
        {"label": "Generosity", "value": "Generosity"},
        {"label": "Health", "value": "Health"},
        {"label": "Humility", "value": "Humility"},
        {"label": "Humor/fun", "value": "Humor/fun"},
        {"label": "Independence", "value": "Independence"},
        {"label": "Initiative", "value": "Initiative"},
        {"label": "Integrity", "value": "Integrity"},
        {"label": "Job Security", "value": "Job Security"},
        {"label": "Leadership", "value": "Leadership"},
        {"label": "Listening", "value": "Listening"},
        {"label": "Making a difference", "value": "Making a difference"},
        {"label": "Openness", "value": "Openness"},
        {"label": "Patience", "value": "Patience"},
        {"label": "Perseverance", "value": "Perseverance"},
        {"label": "Personal Fulfilment", "value": "Personal Fulfilment"},
        {"label": "Personal Growth", "value": "Personal Growth"},
        {"label": "Personal Image", "value": "Personal Image"},
        {"label": "Power", "value": "Power"},
        {"label": "Professional Growth", "value": "Professional Growth"},
        {"label": "Recognition", "value": "Recognition"},
        {"label": "Reliability", "value": "Reliability"},
        {"label": "Respect", "value": "Respect"},
        {"label": "Reward", "value": "Reward"},
        {"label": "Risk Taking", "value": "Risk Taking"},
        {"label": "Safety", "value": "Safety"},
        {"label": "Self Discipline", "value": "Self Discipline"},
        {"label": "Teamwork", "value": "Teamwork"},
        {"label": "Trust", "value": "Trust"},
        {"label": "Vision", "value": "Vision"},
        {"label": "Wealth", "value": "Wealth"},
        {"label": "Well-being", "value": "Well-being"},
        {"label": "Wisdom", "value": "Wisdom"}
      ]
    },
    {
      "id": 4,
      "questionText": "You are stuck with a rather tricky task. You have a deadline at the end of the day. Who would you instinctively reach out to?",
      "questionType": "ona",
      "surveyTitle": "Employee Management Survey",
      "questionInstruction": "You can select up to 3 names to answer this question.",
      "optionsInstruction": "On a scale of 0.5 to 5 (0.5 being the lowest and 5 being the highest), rate how likely you are to reach out to your choice in the above context."
      
    },
    {
      "id": 5,
      "questionText": "The company is going through some changes. There is lot of talk floating around about the impending changes. Who would you turn to, to get more information?",
      "questionType": "ona",
      "surveyTitle": "Employee Management Survey",
      "questionInstruction": "You can select up to 3 names to answer this question.",
      "optionsInstruction": "On a scale of 0.5 to 5 (0.5 being the lowest and 5 being the highest), rate how likely you are to reach out to your choice in the above context."
      
    },
    {
      "id": 6,
      "questionText": "You are having a tough time at work over the past few days. You have had some issues at home that are affecting your work. Who would you turn to, to share your feelings?",
      "questionType": "ona",
      "surveyTitle": "Employee Management Survey",
      "questionInstruction": "You can select up to 3 names to answer this question.",
      "optionsInstruction": "On a scale of 0.5 to 5 (0.5 being the lowest and 5 being the highest), rate how likely you are to reach out to your choice in the above context."
      
    },
    {
      "id": 7,
      "questionText": "There is a company social event coming up. Which of your colleagues would you hang out with?",
      "questionType": "ona",
      "surveyTitle": "Employee Management Survey",
      "questionInstruction": "You can select up to 3 names to answer this question.",
      "optionsInstruction": "On a scale of 0.5 to 5 (0.5 being the lowest and 5 being the highest), rate how likely you are to reach out to your choice in the above context."
      
    },
    {
      "id": 8,
      "questionText": "You have been thinking seriously about your career options in the organization. Lately, you have the feeling that you have not been progressing as fast as you would want to. Who would you discuss this with?",
      "questionType": "ona",
      "surveyTitle": "Employee Management Survey",
      "questionInstruction": "You can select up to 3 names to answer this question.",
      "optionsInstruction": "On a scale of 0.5 to 5 (0.5 being the lowest and 5 being the highest), rate how likely you are to reach out to your choice in the above context."
      
    },
    {
      "id": 9,
      "questionText": "You have an Innovation contest coming up. You have been chosen as a team leader, Who would you pick to be a part of your team?",
      "questionType": "ona",
      "surveyTitle": "Employee Management Survey",
      "questionInstruction": "You can select up to 3 names to answer this question.",
      "optionsInstruction": "On a scale of 0.5 to 5 (0.5 being the lowest and 5 being the highest), rate how likely you are to reach out to your choice in the above context."
      
    },
	{
      "id": 10,
      "questionText": "I am",
      "questionType": "eum",
      "surveyTitle": "Questions For Leader",
      "questionInstruction": "Rate yourself out of 15 for different categories.",
      "optionsInstruction": "Type Your Score In Box.",
      "optBuckets": [{"value": "iam","label":"I am"},{"value": "iwishtobe","label":"I wish to be"},{"value": "othersare","label":"Others are"}],
      "options": [
        {"label": "Rational", "value": "Rational"},
        {"label": "Sacrificing", "value": "Sacrificing"},
        {"label": "Gracious", "value": "Gracious"},
        {"label": "Cautious", "value": "Cautious"},
        {"label": "Emotional", "value": "Emotional"},
        {"label": "Competitive", "value": "Competitive"},
        {"label": "Sympathetic", "value": "Sympathetic"},
        {"label": "Uninhibited", "value": "Uninhibited"},
        {"label": "Collaborative", "value": "Collaborative"},
        {"label": "Dutiful", "value": "Dutiful"}, 
		{"label": "Fair", "value": "Fair"},
        {"label": "Tactful", "value": "Tactful"},
        {"label": "Tough", "value": "Tough"},
        {"label": "Dynamic", "value": "Dynamic"},
        {"label": "Steady", "value": "Steady"}
	]
    }
  ],
  "onaEmployees": [
    {"empId": 101, "empName": "John Doe", "email": "john.doe@generalorg.com" },
    {"empId": 102, "empName": "Jane Doe", "email": "jane.doe@generalorg.com" },
    {"empId": 103, "empName": "Alicia Patron", "email": "alicia.patron@generalorg.com" },
    {"empId": 104, "empName": "Christian Danvers", "email": "chris.danvers@generalorg.com" },
    {"empId": 105, "empName": "Roy Mavis", "email": "roy.mavis@generalorg.com" }
  ]    
}